"","logFC","logCPM","PValue","FDR"
"AT4G32280",-4.84048145350424,5.40088850550726,4.98952046740091e-54,1.67657866745605e-49
"AT3G15540",-3.50572073236637,5.34547895251631,1.83393334495636e-37,3.08119141286117e-33
"AT5G24770",2.87395500108531,6.71602326612868,7.27490652350826e-36,8.14838030009748e-32
"AT5G24780",3.66871989216634,4.84789682933352,1.1966464272702e-35,1.00524283122833e-31
"AT5G07010",-4.1319313288562,4.51775634949641,2.93981465518287e-35,1.97567304086909e-31
"AT5G52900",-3.18002431959773,5.42245397239145,3.30210360367396e-33,1.84928808817754e-29
"AT3G21330",-7.01731833010176,3.51032296312303,1.52790280579002e-32,7.3343700114509e-29
"AT5G46240",-2.93332984039242,5.61977294245491,5.31144593997673e-31,2.23094008093873e-27
"AT5G02760",-2.57737524085592,6.49983505713137,2.52641544559665e-29,9.43251242254873e-26
"AT5G12050",-2.66328273788635,5.90097914538547,2.79585296546177e-28,9.39462513454465e-25
"AT4G37770",-8.97819655992287,3.11870893053017,5.32569535534954e-28,1.62685468482232e-24
"AT5G66580",-2.76043091212897,5.51549430587187,8.33035645261927e-28,2.33263864600761e-24
"AT1G26945",-2.36889146676718,6.57201433227078,1.04750162532686e-25,2.70754997032563e-22
"AT3G23030",-2.39503658385362,6.29835066019712,2.290296996606e-25,5.49703997713964e-22
"AT5G02540",-2.97090311118475,4.69835248300223,4.88244201012549e-25,1.09373210949491e-21
"AT4G16780",-2.92497545016779,4.62954118388866,7.59381556948387e-24,1.59479619228623e-20
"AT5G47370",-2.3278704767628,5.58550711168965,8.63572827511403e-22,1.70692789117872e-18
"AT4G25260",-2.20885401895107,6.07804474005462,1.21910488321792e-21,2.27579790477159e-18
"AT1G67900",-2.01582264552811,7.34942700730562,4.79494987625032e-21,8.47999503904017e-18
"AT4G27260",-2.23880567440567,5.59609228288217,2.10848126525553e-20,3.54245937375581e-17
"AT5G18050",-3.44355157421475,3.55901589359273,5.98522991689199e-20,9.57693788892403e-17
"AT1G21050",-2.62290496712054,4.49110268493426,6.60856105652523e-20,1.00936758464255e-16
"AT5G62280",-2.54857286800953,4.33342082511885,4.49234196170897e-18,6.56311628684108e-15
"AT1G04180",-8.14697714624515,2.35816346451285,8.17804853565103e-18,1.14499494539561e-14
"AT4G17470",2.43507653385178,4.46479346356786,1.02100859632206e-17,1.37231723414455e-14
"AT4G15210",4.43924766813482,2.66365308191294,1.92140343716122e-17,2.48319224213428e-14
"AT1G70940",-1.81738850762511,7.1156998747244,2.0773241064127e-17,2.58526831939554e-14
"AT5G18030",-2.54452008840184,4.12414218469091,6.93071320745346e-17,8.31735089988754e-14
"AT5G11180",-7.99916451447786,2.21514764872492,1.48475141836307e-16,1.72036610895986e-13
"AT2G23170",-2.04801633977287,5.22840032596362,1.94846599529673e-16,2.18241181246536e-13
"AT5G66590",-2.13807150294948,4.83884427815213,4.34642263998114e-16,4.71124172737569e-13
"AT3G25717",-1.94229496611973,5.48772674447049,4.54329467404151e-16,4.77074336366071e-13
"AT4G14560",-2.24052626691576,4.48878549310462,4.79520725996741e-16,4.88268346513409e-13
"AT4G28720",-3.63370618463715,2.98099299257103,8.09588569275916e-16,7.92732361828553e-13
"AT1G29460",-3.37753865249179,3.04509869344073,8.25713727278119e-16,7.92732361828553e-13
"AT1G54400",7.91400169609706,2.07742137333551,1.07243111590285e-15,1.00099528768243e-12
"AT1G14250",1.77320411690956,6.08622962016224,2.35001380259642e-15,2.13419361607689e-12
"AT5G39860",-2.11564249820301,4.55581671426894,6.01201703588049e-15,5.31620516946464e-12
"AT4G31380",-5.5645155156816,2.17220543458698,1.61891048107715e-14,1.39483666628601e-11
"AT5G66080",-2.62689033916128,3.53440895602662,2.63043528531115e-14,2.20969716142563e-11
"AT3G03830",-3.86735979594117,2.56760776164776,2.95299583086733e-14,2.42016014411717e-11
"AT5G44260",-3.74530163544528,2.71322478886994,7.18051553082105e-14,5.74475435396783e-11
"AT1G04240",-1.69397948492352,5.77664817507733,1.67888953749607e-13,1.31195456369634e-10
"AT5G18060",-2.60608377111428,3.39948514524751,2.0700004245944e-13,1.58082168789139e-10
"AT3G50340",-1.85498614476739,4.94180806465819,2.36394682007089e-13,1.76518535662271e-10
"AT3G59900",-3.39160962483461,2.77366266282385,2.84873634618749e-13,2.08093997183896e-10
"AT2G40610",-1.61840221925948,6.19049719465796,3.31568616520315e-13,2.37050396857779e-10
"AT5G25460",-1.4797106038123,8.34291709556292,4.22041900047271e-13,2.95446915112258e-10
"AT5G56690",-7.51520150048982,1.78107091633519,8.63839581196805e-13,5.92382400150511e-10
"AT3G62090",-2.33153755324684,3.71163868356073,9.43589641017398e-13,6.34129982349332e-10
"AT1G29500",-2.42811323101083,3.48253839984954,1.21601158367185e-12,8.01184730089048e-10
"AT1G70700",1.69789109406063,5.3923249920372,1.36482351244162e-12,8.81938455097369e-10
"AT4G24275",-1.97765184636458,4.25979850368912,2.00206856674816e-12,1.26931147131833e-09
"AT1G73830",-2.2801997084158,3.70918326401136,2.40267631740751e-12,1.49508758550976e-09
"AT1G18400",-2.13452966557046,3.90838798378155,3.67820693149606e-12,2.2471838056751e-09
"AT3G44860",4.12386654909522,2.03332681539235,5.86209845925622e-12,3.51746843621299e-09
"AT2G26710",-2.11788736364501,3.85454390699274,9.06075929989801e-12,5.34139708763461e-09
"AT1G64660",-2.08476486384636,3.89117402326076,1.01632999602367e-11,5.88805526317025e-09
"AT3G03850",-2.7914854673802,2.89663713477155,1.37915367047712e-11,7.85463078565629e-09
"AT1G29450",-2.55903942394458,3.06613260938327,1.50852948448005e-11,8.44826795624975e-09
"AT2G44080",-2.51065361232408,3.18834671032113,2.76513764559108e-11,1.52318287159265e-08
"AT4G16515",-1.91605392529196,4.08420271251153,3.37856101148263e-11,1.83107108238451e-08
"AT5G18020",-1.99592688511868,3.8896979860566,3.90026846788987e-11,2.0802670009212e-08
"AT3G55240",-1.6513731995512,4.97802550869041,4.20055990258329e-11,2.20542521635319e-08
"AT5G07000",-1.81490862538964,4.37028071535581,4.36100358174769e-11,2.25443757467517e-08
"AT5G18010",-3.50081333330101,2.2562170970621,6.35381813508374e-11,3.21719314164116e-08
"AT5G38396",-7.33998363820769,1.66264079153941,6.60634268118685e-11,3.21719314164116e-08
"AT5G38400",-7.33998363820769,1.66264079153941,6.60634268118685e-11,3.21719314164116e-08
"AT3G21320",-7.3030240293177,1.62331769726468,6.60634268118685e-11,3.21719314164116e-08
"AT2G39725",2.22658449233245,3.3061215902426,7.15905600928721e-11,3.43655142891527e-08
"AT1G02340",-5.11821199217852,1.79578019400213,8.3077952722909e-11,3.93181037661294e-08
"AT5G41400",-1.99141262626176,3.82036866044465,1.04594653799862e-10,4.77762590865676e-08
"AT1G15580",-2.7745991468014,2.7862500980329,1.04751430482925e-10,4.77762590865676e-08
"AT2G39330",2.64963119715671,2.87394347064661,1.05215260175168e-10,4.77762590865676e-08
"AT5G56700",-4.33321091256427,1.85982219564775,1.11475961898512e-10,4.99442036228505e-08
"AT2G01240",-7.24722302918441,1.57260899856035,1.15052471649242e-10,5.05323168979124e-08
"AT5G57760",-2.01609029480445,3.73552260854662,1.15796333585479e-10,5.05323168979124e-08
"AT1G45145",2.05310221836772,3.60085407794602,1.26697662563802e-10,5.45807033008831e-08
"AT4G34770",-2.49469744184573,3.01371588244267,1.35030433946152e-10,5.7434084069096e-08
"AT1G02350",-2.58975806081432,2.9296225030237,1.43861036570291e-10,6.04252318854364e-08
"AT5G65800",-4.32280581509441,1.86160039646263,1.83321685611877e-10,7.60490775300035e-08
"AT2G22810",-3.17705793401774,2.41831185040311,2.52224571750457e-10,1.03356708048279e-07
"AT5G25190",-2.10326928283687,3.528597489389,3.08318154331926e-10,1.24820561709173e-07
"AT1G29440",-2.17606274467411,3.33693976774752,4.11602660461835e-10,1.64650864248078e-07
"AT5G54585",-1.72070344641222,4.24521089981133,5.39735191466144e-10,2.1336684592524e-07
"AT3G55740",-2.1130818162047,3.34050488430327,8.28156523814451e-10,3.23578087362944e-07
"AT1G74930",2.73923486939749,2.51904705448711,8.98002994978155e-10,3.46835593531678e-07
"AT4G28240",-1.51703301730042,4.85603821411911,1.57454172633851e-09,6.01224444186665e-07
"AT1G29465",-2.12231432882983,3.24745762722936,1.75125877446285e-09,6.61188734151692e-07
"AT1G21060",-1.47337519509265,4.94841153851616,2.27741305619263e-09,8.50284816824277e-07
"AT3G61460",-1.35736634587904,5.7313025924536,2.40724124715418e-09,8.88880443811811e-07
"AT5G18080",-2.48734744283285,2.75688104800636,3.00247795767789e-09,1.09662243841187e-06
"AT4G14130",-1.78131332811724,3.89131713633658,3.10991070635453e-09,1.12364752209597e-06
"AT3G03820",-1.92498130915554,3.54814061398568,3.42677922939519e-09,1.22496420921423e-06
"AT1G74670",-1.26774577158557,6.34439082243691,5.17182025728216e-09,1.82930004510732e-06
"AT5G14750",3.66849631024537,1.65737199958675,6.27886316874332e-09,2.19773291870951e-06
"AT4G39800",-1.23050319041561,6.78890026413131,6.77796559164989e-09,2.34797113206824e-06
"AT5G57770",-1.8504951562873,3.53497025992736,8.62944880347556e-09,2.95884427239169e-06
"AT5G51810",-2.91694753742478,2.20966872049865,9.47596908448876e-09,3.2162779108787e-06
"AT4G36110",-3.63231020809196,1.75993540985312,1.48825668838646e-08,5.00084012431617e-06
"AT5G48900",-1.27640763308485,5.79691324054593,1.56139514767699e-08,5.19465344081605e-06
"AT4G38820",-2.58332566014079,2.5235581209542,1.59818082245675e-08,5.21379339768853e-06
"AT4G38825",-2.58332566014079,2.5235581209542,1.59818082245675e-08,5.21379339768853e-06
"AT1G03870",-1.23105078912916,6.21231531105691,1.79153180948403e-08,5.78837037137332e-06
"AT3G62100",-2.7455430894287,2.39698478103271,1.90461778195744e-08,6.09513968660323e-06
"AT4G08870",1.26387732498585,5.85652539179244,2.03666081657594e-08,6.45621478854572e-06
"AT1G62770",-3.16886224491761,1.99706641319974,2.06145737741741e-08,6.47374680336261e-06
"AT2G46970",-2.27077039599401,2.77138140548904,2.40834553866753e-08,7.32489577114465e-06
"AT4G22880",1.67139563372153,3.7601118750687,2.41593123575982e-08,7.32489577114465e-06
"AT1G73190",3.33620939483378,1.7311314776103,2.43028113903387e-08,7.32489577114465e-06
"AT5G54510",-1.20806679559285,6.35900947406375,2.4394330402395e-08,7.32489577114465e-06
"AT2G47180",1.99837967663975,3.02523220041499,2.44148659713172e-08,7.32489577114465e-06
"AT3G50350",-1.83492981905576,3.34844542648296,3.18132107885721e-08,9.46006645059821e-06
"AT1G29395",-1.33078240101297,5.0261098250365,4.55544461319288e-08,1.33418435938457e-05
"AT2G30930",-1.49505197357396,4.24724684596602,4.56613300783362e-08,1.33418435938457e-05
"AT3G05890",-1.87247676524556,3.25260201666297,5.19138586761639e-08,1.50380127520384e-05
"AT5G65610",-1.70024234377355,3.5600798033527,6.99554577968942e-08,2.00909683153097e-05
"AT3G22740",1.51497246416124,4.08584138548845,7.72739720475507e-08,2.20047458367949e-05
"AT4G29700",1.47918867990512,4.09057393984564,9.11171951648018e-08,2.57287394279636e-05
"AT1G01073",6.72109222026057,1.08600447050388,1.13457124875898e-07,3.12490681154093e-05
"AT2G07704",-6.65687712417132,1.08993038684348,1.13457124875898e-07,3.12490681154093e-05
"AT2G07705",-6.65687712417132,1.08993038684348,1.13457124875898e-07,3.12490681154093e-05
"AT3G03840",-2.38237533157921,2.48042814966545,1.21236681313467e-07,3.31202842723182e-05
"AT3G42800",-2.58926313062394,2.27196470897439,1.3001700368914e-07,3.52325109513104e-05
"AT4G38400",-1.5816014072632,3.80967021429063,1.44261706360597e-07,3.87798548570301e-05
"AT5G05600",2.6405709008854,2.19168459286498,1.47335694409868e-07,3.92918571711141e-05
"AT1G18530",-6.63833759812713,1.07988285058337,2.05751279191296e-07,5.44382242786294e-05
"AT1G78970",-1.73016345744232,3.41256574057284,2.17387770304618e-07,5.70676863888732e-05
"AT1G13245",-1.2070674341256,5.40741858525895,2.22355322782904e-07,5.79192523732647e-05
"AT1G64640",-1.1661439779295,5.7121941213325,2.43893493484344e-07,6.30408397543149e-05
"AT3G30775",1.21789956895592,5.07224245069552,2.57397031316101e-07,6.60233209639972e-05
"AT5G01210",-1.17808785429938,5.58650332211197,2.61847151859351e-07,6.66559696725599e-05
"AT5G11190",-1.8969233173023,2.96128184126856,2.64543264193547e-07,6.68359606273051e-05
"AT5G01215",-1.1717993531179,5.58837686835333,3.00325757287911e-07,7.53100454954358e-05
"AT3G06665",6.60092594430532,0.994764995799545,3.74382289872955e-07,9.18247715643141e-05
"AT1G18510",-6.58158052570627,1.03646286704905,3.74382289872955e-07,9.18247715643141e-05
"AT1G18520",-6.58158052570627,1.03646286704905,3.74382289872955e-07,9.18247715643141e-05
"AT1G07135",1.2496466621987,4.67484312525469,3.90235664115743e-07,9.5019556417516e-05
"AT3G19380",-1.47781923430464,3.88689259999992,4.17871326942505e-07,0.000101016635452677
"AT1G20900",-3.11389618365493,1.68939657601198,5.01749421857383e-07,0.000120427029094656
"AT4G37409",1.30661934210449,4.61985286300885,5.4639928700782e-07,0.000128300157913753
"AT4G37410",1.30661934210449,4.61985286300885,5.4639928700782e-07,0.000128300157913753
"AT4G38850",-2.03107269745471,2.73918078108788,5.47730771093052e-07,0.000128300157913753
"AT3G05640",-1.27673100833945,4.64868569846818,5.49825091946324e-07,0.000128300157913753
"AT1G73510",-6.58660206270395,1.05168740152855,6.83545078122205e-07,0.000157318367911386
"AT3G43340",6.5723515150274,0.979906500507938,6.83545078122205e-07,0.000157318367911386
"AT5G42800",1.51577916469755,3.69857213724621,7.63883755784037e-07,0.000174612394298335
"AT5G59010",-1.19142889658762,5.06073155200117,7.71864106332178e-07,0.000175244443925499
"AT5G06930",-1.54624581825706,3.55135496178245,8.21083727102775e-07,0.000185168157034278
"AT4G02380",-1.72102072558752,3.09267682529925,1.05416974018706e-06,0.000236148077398437
"AT3G45140",0.990211840500057,7.85800895366063,1.17936598789134e-06,0.000262444078974336
"AT2G38120",-1.02038430481776,6.85787822145854,1.25440722832368e-06,0.000277306524250871
"AT1G14920",-1.02053851889581,6.78684944536141,1.31788863752069e-06,0.000289435908483465
"AT2G07794",-4.2963438670609,1.13350159863107,1.431269641737e-06,0.000312295600660043
"AT1G75490",-2.36511580196758,2.09099510244007,1.58908960620997e-06,0.000344494122244307
"AT1G77760",1.13454085930573,5.19466254847349,1.71509231427528e-06,0.000369426486822295
"AT5G39850",-1.73429614196927,2.8904900412295,1.88199434435489e-06,0.00040279473859244
"AT1G52830",-3.02685018606324,1.62557885031485,2.09545132237816e-06,0.000445641489459184
"AT5G02580",-6.42302047800431,0.925104327391324,2.30238691877501e-06,0.000486075719514736
"AT4G22485",0.951321402914347,8.53018854618777,2.31450851503951e-06,0.000486075719514736
"AT5G20820",-2.36264733397124,2.09878198596043,2.36120335767605e-06,0.000492802206364166
"AT1G04310",-1.37700561946187,3.87028906513608,2.42323123770517e-06,0.000502626024996105
"AT1G29490",-4.26858949137923,1.11850826968909,2.51310513707625e-06,0.000518069685987952
"AT1G14910",-1.08041386792683,5.50488759993281,2.58527421172916e-06,0.000529697463795874
"AT3G23050",-0.985324934002917,6.73498407294795,3.1575099711976e-06,0.000643022121528374
"AT5G14760",1.83727546300715,2.61782748481979,3.47625974440979e-06,0.000703670361034082
"AT2G36120",1.11258862498178,5.01119951129649,3.55686984963109e-06,0.000712070032262693
"AT1G75500",-0.946299330174074,7.68856605531514,3.56013824832249e-06,0.000712070032262693
"AT3G30180",-1.17281852406856,4.67226196289872,4.02729521898908e-06,0.000800740674251309
"AT5G50335",-1.59806703246099,3.19362621838093,4.05391712638948e-06,0.000801292489887879
"AT5G25620",1.74901802916889,2.78979549339625,4.1921006497087e-06,0.000823760035271998
"AT2G35387",6.32620156459505,0.793320452635967,4.2478917617732e-06,0.000829870110343623
"AT5G04190",-1.76676182916338,2.86796310439935,4.33878734152033e-06,0.000833897055555771
"AT2G30040",-1.70260172413829,2.87204169324924,4.33878734152033e-06,0.000833897055555771
"AT1G17380",2.3464392364884,1.95750120001355,4.3429553217743e-06,0.000833897055555771
"AT2G20835",-2.27312299752387,2.1649878661256,4.76009363095292e-06,0.000908799239700455
"AT5G15160",-1.38065809196338,3.72320678500989,5.01776477913706e-06,0.000947229955666086
"AT1G02660",-1.38003558483311,3.71988419522583,5.01776477913706e-06,0.000947229955666086
