"","plant","hypocotyl_sun_mean_rCol_rsun","hypocotyl_sun_SE_rCol_rsun","hypocotyl_sun_pvalue_rCol_rsun","hypocotyl_shade_mean_rCol_rsun","hypocotyl_shade_SE_rCol_rsun","hypocotyl_shade_pvalue_rCol_rsun","hypocotyl_sun_mean_rLer_rsun","hypocotyl_sun_SE_rLer_rsun","hypocotyl_sun_pvalue_rLer_rsun","hypocotyl_shade_mean_rLer_rsun","hypocotyl_shade_SE_rLer_rsun","hypocotyl_shade_pvalue_rLer_rsun","hypocotyl_sun_mean_rWs_rsun","hypocotyl_sun_SE_rWs_rsun","hypocotyl_sun_pvalue_rWs_rsun","hypocotyl_shade_mean_rWs_rsun","hypocotyl_shade_SE_rWs_rsun","hypocotyl_shade_pvalue_rWs_rsun","hypocotyl_sun_mean_rCol_rshade","hypocotyl_sun_SE_rCol_rshade","hypocotyl_sun_pvalue_rCol_rshade","hypocotyl_shade_mean_rCol_rshade","hypocotyl_shade_SE_rCol_rshade","hypocotyl_shade_pvalue_rCol_rshade","hypocotyl_sun_mean_rLer_rshade","hypocotyl_sun_SE_rLer_rshade","hypocotyl_sun_pvalue_rLer_rshade","hypocotyl_shade_mean_rLer_rshade","hypocotyl_shade_SE_rLer_rshade","hypocotyl_shade_pvalue_rLer_rshade","hypocotyl_sun_mean_rWs_rshade","hypocotyl_sun_SE_rWs_rshade","hypocotyl_sun_pvalue_rWs_rshade","hypocotyl_shade_mean_rWs_rshade","hypocotyl_shade_SE_rWs_rshade","hypocotyl_shade_pvalue_rWs_rshade"
"1","aos",4.89019962796731,0.38125066915779,0.521340391916593,6.57893855720866,0.550963841968381,0.195442981046157,4.89019963098473,0.602150468150796,0.000295209270725572,6.57893855693503,0.791810649787397,0.725883906136104,4.89019962544127,0.442779927550784,0.0367460222063976,6.57893855622825,0.632317292375603,0.178379159870484,4.89019963582855,0.550963840247057,0.195442973848988,6.57893855899167,0.400241772864914,0.241439867504473,4.890199625596,0.791810650444875,0.725883965601144,6.57893855892145,0.516295977313678,1.97607378993325e-06,4.89019962544959,0.632317287717329,0.178379148696628,6.57893855361394,0.455828255743971,9.91147828623973e-05
"2","arr4",4.03538422115857,0.376256265441839,0.104870155065282,6.63267730092983,0.528085684964339,0.711763740643866,4.035384224881,0.600796425888503,0.0273029584047748,6.63267730909723,0.776262605999568,0.12657155398408,4.03538423519402,0.435998745983572,0.87197361883266,6.63267731235467,0.612556620169037,0.00409167784430098,4.03538421482457,0.52808568331256,0.711763735037187,6.63267730114516,0.37555411286903,0.269013197903464,4.03538421542339,0.776262606625109,0.126571576980617,6.63267729859075,0.497452824906578,4.58260064561955e-07,4.03538423124427,0.612556615653847,0.00409167706707425,6.63267731400403,0.431192595633241,2.2459297986277e-05
"3","AT5G02540_2",4.9776637854877,0.376703794126556,0.378229067350688,7.08109603513518,0.532134500980867,0.574574359910897,4.97766379389176,0.59839016397464,0.000151887448024191,7.08109604522711,0.779024007868682,0.374211562567646,4.97766379678936,0.438079907513716,0.020864251445873,7.0810960471411,0.61600537084412,0.039958553443443,4.97766378716882,0.532134499322925,0.574574356078126,7.08109603794079,0.381235271818851,0.930507544176486,4.97766378922861,0.779024008538028,0.374211617149633,7.08109603195478,0.500072086786643,3.45415163138796e-09,4.97766379501527,0.616005366314571,0.0399585485867078,7.08109604874312,0.438418728596291,2.12741164240526e-07
"4","AT5G02540-1",4.56775762968126,0.369929270083778,0.833156817935772,6.84050226565328,0.524178789392739,0.805007472024406,4.56775761364762,0.596086503240098,0.00183029622140873,6.84050224424233,0.77345309026547,0.265338267359137,4.56775758287482,0.431900670156863,0.16299490165876,6.84050221019914,0.609109231322291,0.0185166877562934,4.56775764575126,0.524178787752143,0.805007461754853,6.8405022783588,0.374778020782822,0.580123067318148,4.567757638239,0.773453090914032,0.265338305342734,6.84050227096929,0.49718326184816,4.7184126827915e-08,4.56775759732151,0.60910922683635,0.018516684692282,6.84050223330279,0.432541712394029,2.54574229563431e-06
"5","AT5g44260_1",5.01031935294781,0.384816125366342,0.343418572248521,7.86363185765387,0.545455383034433,0.408220010450078,5.0103193361178,0.604762691816895,0.000143549109362873,7.86363186692587,0.788393938695058,0.0674280418064321,5.01031932540115,0.445256620358851,0.0189516164722736,7.8636318731361,0.627684389898743,0.0013317101733028,5.01031935254028,0.545455381333589,0.408220012550346,7.86363185700419,0.389577824131148,0.0363194983529493,5.01031935287711,0.788393939445938,0.0674280608353497,7.86363185478513,0.507529720107735,1.96065386148803e-13,5.01031933147766,0.627684385300406,0.00133170998600352,7.86363187160509,0.445818327999753,7.61168905683007e-12
"6","AT5g44260_2",5.2656519174798,0.374710729991033,0.0981009737309213,6.72997834304419,0.543911869372137,0.0847412177836173,5.26565192931694,0.599458360576005,2.04252350386458e-05,6.72997835224777,0.787049106649387,0.946091509885606,5.26565194061784,0.436063459091832,0.0028764618606818,6.72997837697181,0.626113863877285,0.31693026542161,5.26565191533576,0.543911867675333,0.0847412134624914,6.72997833399001,0.39589123775668,0.42206681244164,5.26565191352473,0.787049107328862,0.946091573545526,6.72997834346152,0.513631891740757,3.91188761383887e-07,5.26565193426187,0.626113859253903,0.316930261707113,6.72997835253708,0.450861628637465,1.95913511582546e-05
"7","athb2",3.8079993952808,0.444525879246099,0.0595738079266717,6.72557742787972,0.633515897092744,0.415929232258356,3.80799934645296,0.643899642677353,0.0878958144028494,6.72557738555246,0.851556035305585,0.0769549307169557,3.80799930311573,0.497884594221575,0.752343512996669,6.72557736468419,0.705356645608654,0.00320850180579613,3.80799939946801,0.633515895143132,0.415929236689496,6.72557742876789,0.454875919565937,0.478687628303817,3.80799941411016,0.851556036053579,0.0769549463831027,6.72557744449737,0.559475018881905,3.30630359623996e-06,3.8079993307835,0.705356640450953,0.00320850179522636,6.72557735959269,0.503678364562509,0.000136777879532257
"8","atlea5",4.21734068395763,0.404258438773657,0.289392540570404,5.96556092269878,0.551157648548367,0.235501627770219,4.21734068765064,0.619107036292933,0.0148704529494594,5.96556093714626,0.792132958070702,0.670438101099383,4.21734070588632,0.462423774299896,0.585482790785365,5.96556095779059,0.632508358112365,0.150049351590133,4.21734067606328,0.551157646850683,0.235501623381352,5.96556091387594,0.376530481125757,0.00406925986516038,4.21734066580387,0.792132958829837,0.670438164255547,5.96556091687607,0.499892932904723,0.000225406624195346,4.21734069180752,0.63250835349362,0.150049338482392,5.96556094809007,0.434851838899467,0.00752471891739237
"9","atr4",5.75636847613823,0.430216239387096,0.00986667107034966,6.32726058407066,0.588669450419979,0.0018783295367375,5.7563684402819,0.636467592310007,1.74258730911703e-06,6.32726057309073,0.819006201897782,0.305001980466743,5.75636841616696,0.485088787729144,0.000224846203873863,6.32726054545112,0.665751266483904,0.688678588894871,5.75636847307798,0.588669448592632,0.00187832963612822,6.32726059910573,0.404382957632164,0.0748326837484896,5.7563684869342,0.819006202599093,0.30500192291303,6.32726058892356,0.520761178784116,2.29874044053169e-05,5.7563684331172,0.6657512616293,0.688678605887814,6.32726056145055,0.458992620301599,0.000903516093043955
"10","bbx18_2",5.39925294616619,0.369801809346319,0.0416392635524141,6.99812530405551,0.517256603913244,0.120507044891682,5.39925296171563,0.596759541798031,6.71625360526562e-06,6.99812530390771,0.768621086123597,0.807018831687708,5.39925296059596,0.431201794452774,0.000889101413790172,6.99812530458919,0.603031824388732,0.206900042667407,5.3992529560898,0.517256602301077,0.120507036999054,6.99812530258182,0.36465554758897,0.891547419826116,5.39925294578466,0.768621086759074,0.807018885853335,6.99812530427191,0.490272994490673,4.68826488742025e-09,5.3992529595256,0.603031819933366,0.206900027041721,6.99812530583266,0.423029029917316,2.20935997496952e-07
"11","co_9",5.64120777651645,0.366386847402033,0.00661294720379701,7.61627392211981,0.518653140166969,0.410292657718308,5.64120775470674,0.595068087180237,8.64668885158792e-07,7.61627388904214,0.769734361215125,0.463802851577203,5.64120772210672,0.429370356787661,9.62981019756448e-05,7.61627385501475,0.604318662704085,0.0598857761744194,5.64120778947272,0.518653138549477,0.41029264768646,7.61627393044051,0.368904265237167,0.123430663549971,5.64120778624028,0.769734361870072,0.463802897316087,7.61627393324229,0.493561919056443,1.64313007644523e-12,5.64120774019805,0.604318658249188,0.059885770128969,7.61627387336551,0.427718343648436,5.3709925396106e-11
"12","coi1_16",5.57824544889352,0.363984309831308,0.0104403478304205,8.55282194775528,0.534084341138401,0.283884191341998,5.57824543027194,0.594288335363845,1.42746939735261e-06,8.55282194237705,0.78058205352373,0.0452481215009108,5.57824541999041,0.427202910977896,0.000161614689515144,8.55282194739117,0.617642462710691,0.000546063696144961,5.57824544468003,0.534084339494741,0.28388419103422,8.55282194533228,0.39260179246093,0.000128316877996415,5.57824545465156,0.780582054306845,0.0452481335319694,8.5528219507813,0.51254617652752,0,5.57824542914383,0.61764245819006,0.000546063653551698,8.55282193564133,0.448549307499382,0
"13","Col",4.64568989552511,0.420213771989529,0.000179739055875761,7.04784787854624,0.694663144022447,0.0322318084037949,4.64568988003077,0.579852775144761,0.000844622121876748,7.04784787475388,0.750584867631647,0.186784590843789,4.64568987585583,0.408534057594217,0.0958121866836572,7.04784787752539,0.579547234484373,0.006972025305791,4.64568989177496,0.694666582876185,0.0322253318819656,7.04784787798251,0.62022519378198,0.00180234538844681,4.64568988960454,0.750584868291405,0.186784623322815,7.04784788204344,0.481036974032328,1.25902621661567e-09,4.64568987769914,0.579547230215752,0.0069720246305538,7.04784786828781,0.413271936591351,5.8809805469906e-08
"14","cry1_2",7.87141129983409,0.365281498654705,0,8.80266231503238,0.516858279484046,0.00445122610423132,7.87141132269859,0.592265729591144,0,8.802662334677,0.768692999217953,0.532499463578807,7.8714113481429,0.427965191213898,0,8.80266235892785,0.602825989293534,0.876607527559327,7.87141129196458,0.516858277872472,0.00445122590721425,8.8026623076384,0.370064595193024,2.18914261918002e-06,7.8714112941922,0.768692999887415,0.532499407226148,8.80266230967908,0.49239541985446,0,7.87141133503682,0.602825984851182,0.876607504971809,8.80266234414432,0.428106718766094,0
"15","della_Q",5.13066890820454,0.400465905982643,0.225951147727193,5.95231529722588,0.551814938258681,0.00420188957648748,5.13066889622929,0.616763954559943,8.75563119973055e-05,5.95231528966027,0.792716409650773,0.457164393697338,5.13066889875062,0.458554981064911,0.0110651560193586,5.95231527738065,0.633085064052376,0.979841851107247,5.13066889927884,0.551814936549358,0.00420188965995849,5.95231529986469,0.383913759355941,0.0043445350753597,5.13066890668946,0.792716410303228,0.45716433855238,5.95231529729459,0.504682191595618,0.000286103626772949,5.13066889906292,0.633085059391924,0.9798418895578,5.95231529006986,0.440282857064466,0.00906219786472873
"16","ga20ox1_2",2.71417830780802,0.364017140995424,1.17924144671377e-07,4.05959248438609,0.520486762132431,0.0423908330057139,2.71417831487428,0.593815626350431,0.992848200956319,4.05959249133052,0.771069936326817,0.932109770221069,2.71417832786765,0.427734838074705,0.0034682904567398,4.05959249874528,0.605964520917634,0.402105450933084,2.71417830256732,0.520486760505516,0.0423908323505486,4.05959248228082,0.373949769341546,1.77635683940025e-15,2.7141783008966,0.771069936956981,0.93210970394387,4.05959248291551,0.497575331697046,0.903438425060291,2.71417831995722,0.605964516447354,0.402105426821134,4.05959249484467,0.43225794452615,0.0856405116101211
"17","gi_2",6.80942096520562,0.374850935366815,8.40169200877483e-09,8.72383858502764,0.522822975589644,0.350927934946589,6.80942096139728,0.599056382621981,8.78319639241454e-12,8.72383859189847,0.772868693496827,0.514937900786519,6.80942097777175,0.436806672522632,8.33555446888568e-11,8.72383859907669,0.608129766776084,0.0766965136193223,6.80942094999924,0.522822973958458,0.350927944033099,8.72383858373086,0.366410487870056,4.9247035172062e-06,6.80942095747127,0.772868694126377,0.514937962949871,8.72383858384062,0.490440347271591,0,6.80942097131101,0.608129762305749,0.0766965060824745,8.72383859397715,0.42553006577674,0
"18","hfr1",5.84118866746139,0.380621741378925,0.00169625802187046,7.90313052121589,0.534406644158213,0.524405432595872,5.84118863976562,0.603921380185762,2.24456169872767e-07,7.90313048729315,0.780483766378337,0.404393172743077,5.84118860379951,0.441299139230619,2.17329945206846e-05,7.90313045169849,0.61792127415444,0.0476226537456468,5.8411886801145,0.53440664248875,0.524405425030937,7.90313053191266,0.376476387067415,0.023149715450113,5.84118867722426,0.780483767035534,0.404393217857862,7.90313053271583,0.499272929910351,4.32986979603811e-14,5.84118862352452,0.617921269596137,0.0476226494489962,7.90313046780796,0.433977828326943,1.06759046047955e-12
"19","hrb1",3.37243865404974,0.367449493132057,0.000535466868257561,5.57944820712629,0.524297785243827,0.709756452634478,3.37243866697935,0.595868737051356,0.26549898893805,5.57944822019098,0.773701988060118,0.303683952250798,3.37243868281713,0.429725771943035,0.167907543483673,5.57944824484281,0.609082662276877,0.0246138147211958,3.37243864863045,0.524297783620943,0.709756439809536,5.57944819646496,0.377195460818008,0.000100613376834424,3.37243865147802,0.773701988746811,0.303683996909384,5.57944820178367,0.500501650730246,0.00356424061339133,3.37243867411417,0.609082657781067,0.0246138125055628,5.57944822892332,0.434773198640386,0.0741055031335287
"20","hy5",8.5960804590386,0.395592769861817,0,9.37751624049005,0.543136442606384,0.00286186082099205,8.59608049364262,0.612452014662641,0,9.37751625072835,0.786406309338623,0.423355633382711,8.59608051428683,0.454156078171551,0,9.37751628082357,0.62524833243335,0.928373577869064,8.59608046034454,0.543136440943698,0.00286186045424319,9.37751622860245,0.373494211364642,4.8975423716513e-10,8.59608046099017,0.786406310078296,0.423355598780501,9.37751624038891,0.496719416377701,0,8.59608050326731,0.625248327833601,0.928373577822868,9.37751625192,0.431564330991202,0
"21","hy5_hyh",5.96819313495865,0.413096215075803,0.00137789140266809,7.21722546355192,0.564137940342038,0.0410126924417442,5.96819313513007,0.624442605324226,1.88206902063115e-07,7.21722546690943,0.801473361711779,0.839754853136044,5.96819314879273,0.469563072447074,2.03666466973562e-05,7.21722549072549,0.643767725701502,0.522837410652059,5.96819312238997,0.564137938605031,0.0410126914895717,7.21722545228602,0.385920297842135,0.660762503596863,5.96819313465281,0.80147336250185,0.839754783370818,7.21722546464404,0.505301513412333,9.64588631191532e-10,5.96819314491886,0.643767720981336,0.522837409827845,7.2172254663895,0.441590090101033,4.83226352265831e-08
"22","iaa6_19",5.38131379536898,0.373379342662671,0.0488852736475471,6.37467832850382,0.530127786981718,0.00790384799594435,5.38131380188219,0.598235496192002,8.13754369688446e-06,6.37467833260493,0.777427936185613,0.591063324956236,5.38131380716355,0.433726664939192,0.00110295123488235,6.37467833356718,0.614165867907504,0.799857079033558,5.38131379480688,0.530127785335156,0.00790384765792362,6.3746783278505,0.381632036505002,0.0778196494848931,5.38131379176279,0.777427936802288,0.591063267739792,6.37467832764347,0.501360546973982,7.07623934848023e-06,5.38131380477633,0.614165863379956,0.799857047088465,6.37467833716517,0.436688580338131,0.000322447256308145
"23","jar1",4.91133680014136,0.413624725423674,0.520752453026731,6.78831646479981,0.598125748312889,0.379973676472103,4.91133678864551,0.624050630560565,0.000421194714643303,6.78831645897873,0.825563125191367,0.572574229645346,4.9113367835946,0.471030124721225,0.044620794665551,6.78831644748309,0.673750995969051,0.12300254833874,4.91133679729482,0.59812574646587,0.379973675910894,6.788316466143,0.434626435000511,0.550449118297481,4.9113368031581,0.825563125892831,0.572574295923337,6.78831646336917,0.543327321069962,9.40847844521642e-07,4.91133678718774,0.673750991011287,0.123002534653427,6.78831646314498,0.48601610254879,4.48491387237127e-05
"24","jaz1_RNAi",4.38567983627288,0.430178871195751,0.545595866029024,6.30746134884942,0.594608106592287,0.419202390802857,4.38567985429058,0.63685710653825,0.0084960410762136,6.30746136901521,0.82312197093574,0.53502075339453,4.38567988670598,0.485545026810473,0.386450377795302,6.30746139926434,0.670808413307373,0.106135620733235,4.38567982212581,0.594608104736829,0.419202392706691,6.30746134135444,0.412711840779211,0.0728941283036681,4.38567982482521,0.823121971669712,0.535020805592594,6.30746134462473,0.528092811152995,3.50837394038628e-05,4.3856798679238,0.670808408380086,0.106135614824288,6.30746137259316,0.466811927458535,0.00127693014212316
"25","jaz2",4.76654702724773,0.377922758351127,0.749141422081446,6.35721574868522,0.558306527233474,0.14616642757118,4.7665470303377,0.601437974150567,0.000629358526860191,6.35721574448719,0.797060770972742,0.821772107224439,4.76654703088366,0.439478241013653,0.0682865579077507,6.35721573363184,0.638788450264173,0.23853325294867,4.7665470278707,0.558306525496956,0.146166427705066,6.35721575528848,0.412640902707749,0.0942683856761173,4.7665470301024,0.797060771628811,0.82177216893224,6.35721575107013,0.527089358664713,2.23891894748363e-05,4.76654703090332,0.638788445579076,0.238533235035034,6.35721573860119,0.466577777105178,0.000871114708794307
"26","jaz5_1",5.69841288515422,0.385807645135287,0.00638714738985136,7.31800991879908,0.52810609298314,0.138463958067023,5.69841289351986,0.605730879344507,8.31451200111744e-07,7.3180099284469,0.776274594224702,0.788267482060261,5.69841290260465,0.445095013871818,0.000100088737251314,7.31800993547582,0.61261922378086,0.201883146030697,5.6984128831037,0.528106091331796,0.138463956242938,7.31800991876291,0.365159219870168,0.459435121866575,5.69841288051768,0.776274594895992,0.788267551204179,7.31800991578142,0.489738870683424,7.37618854884659e-11,5.69841289734838,0.612619219284824,0.201883131446755,7.31800993150849,0.423765561954946,3.17281134698533e-09
"27","jaz9_1",4.12227634002564,0.409003069031619,0.200712580930592,5.8764931158602,0.587309005330864,0.269989067955841,4.12227631019553,0.622832274352979,0.0232992051977021,5.87649308347461,0.817449099121684,0.674702422921017,4.12227629367298,0.466219330811591,0.736065208473756,5.87649305989227,0.663870150943765,0.167461739286371,4.12227633521408,0.587309003578926,0.269989061849025,5.87649310790611,0.424684081214832,0.0058382489513269,4.12227634281172,0.817449099866417,0.674702481641176,5.87649312060137,0.536120878821734,0.00106026514606672,4.12227630641197,0.663870146137767,0.167461719652923,5.8764930901071,0.47564557115363,0.0240343309696427
"28","kat1_1",4.79652976992178,0.372740098910444,0.685735049833669,7.41126481966133,0.536964636843444,0.6922094126809,4.79652977409703,0.598977111167273,0.000496560808896929,7.41126481847471,0.782367628823269,0.12401752211777,4.7965297880835,0.435786970294076,0.056481771505795,7.41126480763474,0.620288791577844,0.00419214965942327,4.79652976442774,0.53696463518548,0.692209398403205,7.41126482709003,0.389958232402392,0.351423458705429,4.79652975914518,0.782367629546013,0.124017539310977,7.41126481948559,0.509576111371395,1.17799325849433e-10,4.79652977674103,0.620288787050869,0.00419214860315176,7.41126481464644,0.447028573847796,5.7885736204355e-09
"29","kat1_2",4.66006585251269,0.392392576852602,0.970776491809092,6.26180993556247,0.544050745981397,0.141310877175967,4.66006589086853,0.610414798203686,0.00140148330551515,6.26180997263865,0.78703836908117,0.808620459506435,4.66006592141931,0.451159796232981,0.123550088199105,6.26181001018928,0.626200076122286,0.222452790952898,4.66006585141441,0.544050744294006,0.1413108698481,6.26180992538666,0.379939344607765,0.0386226896479269,4.66006584236929,0.787038369790607,0.80862052963174,6.26180992297814,0.501636211510225,2.00151339411203e-05,4.66006590147446,0.626200071515985,0.222452775098311,6.26180999256099,0.437260787003486,0.000855070870160457
"30","Ler",2.70885523180256,0.57985277698124,0.000844621814025004,4.11996152660602,0.75058486894796,0.186784626715565,2.7088552812995,0.628860540919985,0.000264363495803943,4.11996150885275,0.897918711209404,0.148027491167751,2.70885526127106,0.621525628103169,0.043318217564484,4.11996150121214,0.811717927516562,0.479929892456829,2.70885527959052,0.750584866678261,0.186784601594666,4.11996152407018,0.48103697298144,1.25902621661567e-09,2.70885523436142,0.897915108848105,0.14801950270338,4.1199615318177,0.701154699468099,0.00252879651192695,2.70885525989604,0.811717921542589,0.479929872972277,4.11996150279891,0.526935865157802,0.195119843827189
"31","lzf1",6.15791737805543,0.402183856376353,0.000172262702134995,6.91302742802768,0.576991018545236,0.00433153804484743,6.1579173934709,0.615853077257068,2.27804868302428e-08,6.91302740922442,0.810165645095379,0.418156153860079,6.15791737857589,0.458364949646156,1.77927917821563e-06,6.9130274185742,0.654772109004116,0.899699069737295,6.1579173952151,0.576991016807048,0.00433153718080082,6.91302741670473,0.419156138471019,0.747736295375433,6.15791739248775,0.81016564597644,0.418156124613435,6.91302743620896,0.530123378186232,1.44459698869781e-07,6.15791738806548,0.6547721042122,0.899699057426992,6.91302740022312,0.46989823001366,7.28775243841184e-06
"32","LZF1_ox",4.51639798657976,0.388637335363274,0.739392804575802,7.27315640286698,0.555705453281512,0.523438760745732,4.51639797433607,0.607381952798593,0.00293784740086767,7.27315639338898,0.795425189642602,0.0907719293677858,4.51639797255195,0.448162600000722,0.218734162065578,7.27315639621836,0.636577306759409,0.00258781046179002,4.51639798131904,0.555705451550553,0.523438761465918,7.27315639907311,0.40069311037096,0.573944490741104,4.5163979827328,0.795425190369235,0.0907719448100444,7.27315640853108,0.516402678558185,1.1160228297058e-09,4.51639797505566,0.636577302095752,0.00258781018868315,7.27315638681562,0.45497186846823,5.96970468613733e-08
"33","mida9_3",5.10479192146291,0.430227596859146,0.285983172421433,6.7233293900957,0.630064882357962,0.213676226947195,5.1047919139372,0.636905453890678,0.000171026977976885,6.72332938147664,0.848905201608959,0.806970891016559,5.10479189734866,0.485418007054091,0.018930991950775,6.72332936903,0.702295747869639,0.266239735658831,5.10479192746534,0.630064880415767,0.21367622171235,6.72332939274095,0.461847772255373,0.482312345870416,5.10479193471675,0.848905202345248,0.806970964518434,6.72332939176189,0.567121244660832,4.5545477944664e-06,5.10479190908704,0.702295742722326,0.266239721081209,6.72332938059458,0.510337219129501,0.00017001424432328
"34","mida9_4",4.86266479849391,0.378241491406339,0.566242141638182,6.83784457154076,0.562139035427462,0.447561582777282,4.86266482572164,0.601361181546728,0.00034552176414282,6.83784457294894,0.799718065162174,0.480638585426256,4.86266484034213,0.440234323706387,0.0415347099797705,6.83784460050338,0.641925426524863,0.0764576346003278,4.86266480272919,0.562139033711832,0.447561563961538,6.83784456257469,0.418359456010016,0.615716596103785,4.86266479772313,0.799718066000423,0.480638615782773,6.83784457642127,0.530943316080793,3.21316278029116e-07,4.86266482948767,0.641925421841327,0.0764576350842805,6.83784456121442,0.471973200799954,1.65699623879689e-05
"35","myc2",5.5302047565284,0.37553490643542,0.0185523633408793,7.16644664969948,0.529954971959388,0.148465125233606,5.5302047828181,0.600519534995203,2.71103658899818e-06,7.16644668057341,0.77767809514805,0.772215575317851,5.53020482148147,0.436437973484506,0.000339651129014129,7.16644671831573,0.614247577607418,0.193631703812026,5.53020474233859,0.529954970297703,0.148465123828054,7.16644663844516,0.377305143751953,0.753285558085387,5.53020474011515,0.777678095849593,0.772215641839367,7.16644664036029,0.49974694024163,1.18754917011188e-09,5.53020479944212,0.614247573093138,0.193631690861607,7.16644669536037,0.434140162760012,5.49911691738458e-08
"36","opr3",3.16506111732372,0.376455649846071,8.5255295767972e-05,4.69015860870611,0.528260248965211,0.0969346899173531,3.16506115550314,0.598900596486468,0.446259765180855,4.6901586450458,0.776407030182555,0.883282175037436,3.16506119733146,0.437938613926613,0.0677922562704936,4.69015868594391,0.612598569967391,0.261846338918565,3.16506110396191,0.528260247335182,0.0969346882005748,4.69015859672769,0.374912493962956,3.53824969323568e-10,3.16506111162901,0.776407030865181,0.883282249827828,4.69015859760446,0.496370169231467,0.250733022436106,3.1650611762688,0.612598565469483,0.261846323518965,4.69015866376665,0.43295513703802,0.79481566463312
"37","PAR1_RNAi06",3.60384006448213,0.908295684763525,0.2514328985595,6.78171562883925,1.5462030081269,0.615911287461672,3.60383996373476,1.02353024890832,0.381946536324376,6.78171568641323,1.6485377085072,0.283909514797515,3.60384001447893,0.935396642479313,0.699346836239128,6.78171562538669,1.57764782739788,0.138053900389123,3.60383996416809,1.54620300353808,0.615911220366624,6.78171567688136,1.25831075520516,0.832507987905071,3.60384004470163,1.64853770938009,0.283909580629518,6.78171559663892,1.30060644069462,0.040766185143585,3.60384000637408,1.57764781585135,0.138053876369762,6.78171572459808,1.27701373949633,0.121297218443954
"38","PAR1_RNAi08",5.26201061995885,0.376515360717417,0.101726790285954,7.34565664329956,0.518435071071255,0.539003788051198,5.26201063453324,0.600909525649851,2.19683226485579e-05,7.34565665778658,0.769825916367882,0.382373408404731,5.26201065670483,0.437236525140361,0.0030333269314986,7.34565669036951,0.604177947383844,0.0392413018638811,5.26201061117474,0.518435069472154,0.539003781603482,7.34565663362421,0.361720574749099,0.410378838850722,5.26201061326817,0.769825917118185,0.382373454785282,7.34565664153039,0.487592815914069,4.17978984756928e-11,5.26201064409822,0.604177942963652,0.0392413008535415,7.34565665679499,0.420280386667006,1.57352708640701e-09
"39","PAR1_RNAi09",4.51573783715038,0.426153829593512,0.760426097476884,6.25120183879399,0.569982508171938,0.2422002373236,4.51573789391017,0.632805624525713,0.00432055197251735,6.2512018886142,0.805579279054355,0.68723475911429,4.51573796836698,0.481164817437395,0.25254604587747,6.25120193118041,0.649176520815362,0.166736093384035,4.51573780966666,0.569982506426878,0.24220024715971,6.25120183046593,0.384048397189897,0.038110342758094,4.51573781850052,0.805579279815144,0.687234813775339,6.25120182356119,0.504208148852332,2.42093854021519e-05,4.51573792898997,0.649176516110908,0.166736071643052,6.25120191306829,0.440915006789334,0.00102812219050041
"40","par2_1",4.75054714903015,0.476578890812045,0.825865955393918,5.48836107953777,0.647364573254161,0.0101770009264472,4.75054712367137,0.668960678516143,0.0022875342216957,5.48836107774505,0.862186059155501,0.434898928601386,4.75054711711153,0.526407462790362,0.135761578624988,5.48836106597011,0.718121093784118,0.889445060111089,4.75054714165965,0.647364571238009,0.0101770010473667,5.48836108320805,0.440731293472136,0.000407020042567874,4.75054714207009,0.862186059969446,0.434898868588263,5.48836107743226,0.549669149110311,0.0128318171650852,4.75054712121563,0.718121088528749,0.889445092463389,5.48836108194627,0.490956796670389,0.162652833515196
"41","pft1",4.34877394383239,0.365001906975395,0.415999329611051,6.41113204903512,0.515150744214478,0.509539722252729,4.34877393433947,0.592455473115642,0.00566546065812945,6.41113203893165,0.767487677835813,0.396181311710883,4.34877392101403,0.427585212421897,0.3696315982446,6.41113202771756,0.601404131342273,0.0417720756894551,4.34877394899591,0.515150742603151,0.509539715652509,6.41113205315044,0.367594174104244,0.0833282224863394,4.34877394725287,0.767487678497961,0.396181362400317,6.41113205241379,0.490753458361678,3.12855853423777e-06,4.34877392822506,0.601404126914312,0.0417720716175298,6.4111320320436,0.425731818860841,0.000160406691230852
"42","phyA",4.99940801810135,0.375392670529861,0.346114290893665,7.78584573669036,0.522845298112901,0.462395160472608,4.99940801233029,0.600680810408366,0.000139164529873614,7.78584572855886,0.772798470420782,0.0752031960213382,4.99940801551526,0.437496043279151,0.0181197043270824,7.78584572352863,0.608052823764833,0.00136114338660609,4.99940801423414,0.522845296482565,0.462395156433968,7.78584573827868,0.366853021714624,0.0443170862097544,4.99940801212135,0.772798471120113,0.0752032085055274,7.78584574059022,0.492079782153873,1.13464793116691e-13,4.9994080121405,0.608052819295146,0.00136114312097502,7.7858457217983,0.426389482163001,3.05977465586693e-12
"43","phyA_B",10.3025308319997,0.39986575306574,0,9.8298770924009,0.576520989146927,6.40419306474627e-07,10.3025308424291,0.616300276487753,0,9.82987710563665,0.809910262708716,0.0200732755572055,10.3025308525413,0.458160635539325,0,9.82987711990439,0.654773474916189,0.0454427121607472,10.3025308323424,0.576520987344838,6.40419225872435e-07,9.8298770908199,0.417384271378804,2.99138491755002e-11,10.3025308234218,0.80991026340188,0.0200732712005056,9.82987708886457,0.531519066586282,0,10.3025308436813,0.65477347009582,0.0454427130305863,9.82987710771706,0.470532822894644,0
"44","phyB",9.06161985776861,0.364256330989736,0,8.62306230091095,0.513492744045111,3.36153498370351e-08,9.06161988028102,0.593874394841634,0,8.62306232552123,0.76645204188962,0.0158533907495606,9.06161991085606,0.427505400037873,0,8.62306235415268,0.600033284475567,0.0334895081558804,9.0616198472824,0.513492742437705,3.3615346506366e-08,8.62306229303333,0.364244233759413,1.56441213032821e-05,9.06161984572504,0.766452042551685,0.0158533870512008,8.62306229401058,0.490343641965169,0,9.06161989349554,0.600033280058187,0.0334895093609551,8.62306233662477,0.423464245311554,0
"45","pif4_pif5",3.40466537903112,0.40425118759298,0.00215509584145002,5.25952860090395,0.587279708967449,0.351435558742596,3.40466537394179,0.619179922222233,0.261180430069021,5.25952860379525,0.817867004664722,0.58744968970308,3.40466538812459,0.461666666352576,0.224826897163608,5.2595286036056,0.664241258467641,0.12574782983364,3.40466536483107,0.587279707144723,0.351435564283356,5.25952859788586,0.428603816742053,3.0762308672827e-05,3.40466537225457,0.81786700533651,0.587449753632171,5.25952859644669,0.539724372587275,0.0347995085450969,3.40466538272886,0.664241253575024,0.125747814463395,5.25952861378984,0.47967352894728,0.341028408599784
"46","pil1",4.32990829466484,0.459407466179625,0.491890330737456,5.03164096270874,0.644486114406566,0.00836092091160268,4.32990829966965,0.654762097369911,0.013334379770475,5.03164098508317,0.859887267298767,0.40944184006239,4.32990833119364,0.511140349186746,0.475465800422799,5.03164100452986,0.715444356273877,0.849344269039159,4.32990827185258,0.644486112459303,0.00836092119248577,5.03164095557744,0.45634106349404,1.02101148267142e-05,4.32990828745192,0.859887268097849,0.409441780184002,5.03164095140982,0.561133687077598,0.104301395858636,4.3299083167335,0.715444351111284,0.849344302495937,5.0316410033374,0.504787814622739,0.650272136117398
"47","pil5_1",4.48861575698593,0.379440126382414,0.678922971582492,6.99272349541559,0.543384573889043,0.851183952849171,4.48861577858281,0.60277917539083,0.00316910653686175,6.99272350624559,0.786730009026169,0.164818239248743,4.48861580349383,0.439444024805629,0.233615254271352,6.99272351969631,0.625749922667412,0.00777173549313925,4.48861574920801,0.543384572195236,0.851183952737174,6.9927234905839,0.393778086637332,0.888675998260182,4.4886157494245,0.786730009699093,0.164818261263888,6.99272349094019,0.512146063142681,2.16608362357817e-08,4.48861579054241,0.625749918064635,0.00777173412960197,6.99272351322561,0.448177125933551,1.06638981667295e-06
"48","pks_triple",4.76977682204403,0.375853616420483,0.741305821168322,6.32908575040956,0.532066826100488,0.113247553237238,4.76977684770213,0.601170823283714,0.000613639628694429,6.32908578416972,0.779101784681669,0.849144213500894,4.76977688772106,0.437613442745121,0.0660252182350787,6.32908581297889,0.616029246478197,0.241474664755208,4.76977680531473,0.532066824441539,0.113247555247072,6.32908574419512,0.380377661629236,0.0588818956923172,4.76977680999674,0.779101785324896,0.849144290839938,6.32908573958752,0.502374100753373,1.1235433440504e-05,4.76977686598621,0.616029241945327,0.241474642367701,6.32908580200549,0.43781008758479,0.000494950419780427
"49","rve8",5.49297067111777,0.374845752888588,0.0238521772681441,7.02294864478709,0.534275356811965,0.102660958279909,5.49297069525774,0.60061552486378,3.67280320601182e-06,7.02294865727596,0.780302093087722,0.878925782848695,5.49297071229461,0.436823528221345,0.000474379828890648,7.02294867781688,0.617638772536389,0.262380471802392,5.49297067135152,0.53427535515579,0.102660951534717,7.02294863379265,0.382502074153852,0.948100976294173,5.49297066740614,0.780302093754062,0.878925842848281,7.02294864006286,0.504622770597843,9.41991507019679e-09,5.49297070178823,0.617638767975732,0.262380453678093,7.02294867023608,0.439802517653624,4.65511363234583e-07
"50","RVE8_ox",3.43310542599237,0.380969264309565,0.00146903768587459,6.19729682505319,0.528996817456026,0.493775780904291,3.43310542542617,0.604117071309377,0.230652844004973,6.19729682777291,0.776688758492122,0.0815626877149027,3.43310542135403,0.441986492254236,0.228781160636061,6.19729682245505,0.61336104955138,0.00169593825251591,3.43310543198682,0.528996815800661,0.4937757862384,6.19729682863087,0.368829763897707,0.021155894049667,3.43310541717629,0.776688759125909,0.0815627025754149,6.19729682456425,0.493660500684055,2.63135795521841e-05,3.43310541999401,0.6133610450419,0.00169593786862632,6.19729682942102,0.427511913354062,0.00111544398414143
"51","sav3_2",2.04994608436785,0.366090407479013,1.56763491077072e-12,2.42739881164733,0.520423566142924,0.000101633386417443,2.04994609882853,0.594317059377871,0.267632112823015,2.42739882056629,0.770928875147082,0.180063302770264,2.04994610806503,0.429358164029058,8.39459125789865e-06,2.42739882412423,0.606013856620678,0.447672937316558,2.04994608579061,0.520423564512733,0.000101633380098054,2.42739881472385,0.370749972137132,0,2.04994607975149,0.770928875771044,0.180063277682105,2.42739881099629,0.495562892449487,0.000642998225061753,2.04994610192969,0.606013852173507,0.447672954011397,2.42739882002473,0.430027386824669,3.52452493856958e-08
"52","scl13_as1",5.36052241736996,0.361869381452346,0.0482911771721466,7.40442717929927,0.513433807096895,0.485367458552525,5.36052243808223,0.591165336021468,7.47406389223215e-06,7.40442719998022,0.766361655999872,0.409012362334147,5.36052245907093,0.425401728035489,0.00104600254276388,7.40442722099148,0.599909035740079,0.0444185379999182,5.3605224130936,0.513433805492077,0.485367453286207,7.40442717500586,0.366577410387653,0.330747094017695,5.36052241150877,0.766361656649952,0.409012414474347,7.40442717341469,0.491274680729199,2.61000110413079e-11,5.36052244618989,0.5999090313169,0.0444185332120557,7.4044272081189,0.425851171331624,1.09367537248772e-09
"53","scl13_as2",6.02697614748667,0.367218781232422,0.00017127209824741,7.4653209106845,0.530849618283672,0.0695042797929892,6.02697616023646,0.595573418286875,2.69087607751572e-08,7.46532092603664,0.7780225088476,0.97207350820495,6.02697617400935,0.428858876831973,1.58103866443327e-06,7.46532093414211,0.614958091739723,0.328717928679203,6.02697614341524,0.530849616636404,0.0695042796977892,7.4653209124619,0.387085553646345,0.280872792965531,6.0269761422279,0.778022509489265,0.972073581035453,7.46532090688818,0.506473119043931,4.47877290810084e-11,6.02697616748913,0.614958087240451,0.328717908222796,7.46532093037381,0.441405992388212,1.76296977016932e-09
"54","spa1_3_4",2.28462347852571,0.409281347697183,8.57302540069327e-09,3.07992471398092,0.57624724459133,0.00532004170658484,2.28462348126279,0.619876759720801,0.493773470792898,3.07992470159374,0.809580589120406,0.446911875446887,2.28462346653087,0.466579006652611,0.000319851809714944,3.07992468882467,0.65433079496511,0.948407257804144,2.28462348972046,0.576247242815039,0.00532004116764773,3.07992471437243,0.408796555842816,0,2.28462349030353,0.80958058979861,0.446911827509902,3.07992471505692,0.522447977853708,0.0465803942009493,2.28462347513972,0.654330790155016,0.94840728490061,3.07992470175284,0.462571039942499,0.000198354017039826
"55","spt_11",5.63834109620774,0.400253703299615,0.0131761333760645,6.86965755097796,0.558654989897343,0.0361593727717855,5.6383410747557,0.615916485778105,2.03957836664159e-06,6.86965753414473,0.797390682447305,0.821622900488597,5.63834105471694,0.457780079080024,0.00026032777304108,6.86965751025292,0.639083686552558,0.537931670102622,5.63834110090507,0.558654988156583,0.0361593722949429,6.86965755951117,0.393171727660637,0.650419794642989,5.63834109817183,0.797390683143144,0.821622830294753,6.86965755534574,0.51111133823344,7.87206198005208e-08,5.63834106509801,0.639083681852936,0.537931643486222,6.86965752525299,0.447745500651509,4.02758853912388e-06
"56","spt_12",6.46558379269871,0.366082854831703,6.9248802248012e-07,8.32149139294165,0.512045837632152,0.286125335235405,6.46558377096404,0.592287906833706,2.50222509379228e-10,8.32149137544013,0.765484699263547,0.561224297310851,6.46558375047883,0.429707088970534,6.37446495588279e-09,8.32149135115184,0.598766487742346,0.0890937363990818,6.46558379605212,0.512045836041864,0.286125335950428,8.32149140198892,0.363800782033854,0.000468585313306624,6.46558380301343,0.765484699882182,0.561224368243821,8.32149139717631,0.487942789453932,0,6.46558376191056,0.598766483341418,0.0890937274472998,8.32149136535843,0.424061781957447,0
"57","SPT_ox",2.14731207987875,0.497723361398037,5.3979673819704e-07,2.96299910928652,0.861483980578963,0.0656125396856595,2.14731206811259,0.683907072326346,0.411647849490867,2.96299918124612,1.03257268128589,0.564216774780584,2.14731205261871,0.546081759983319,0.000879874578810558,2.96299921583197,0.915863329345325,0.98087489854396,2.14731208611838,0.861483977979122,0.0656125370531235,2.96299910801361,0.703905200338369,7.00201452374927e-09,2.14731208169885,1.03257268252289,0.564216655335356,2.96299908146686,0.776871783250737,0.136496514136717,2.14731206038626,0.915863322814207,0.98087491628179,2.96299922586259,0.736862376210719,0.0125727062773686
"58","srr1",5.70039582179168,0.360350093849297,0.00344252662811417,7.71695955742745,0.521451586626387,0.459668284930493,5.70039580778849,0.589569300434028,4.06582245648934e-07,7.71695953404682,0.771732173449517,0.432766731405794,5.70039579215226,0.422976795848898,4.16597267491881e-05,7.7169595310452,0.606601566400569,0.052026377924852,5.70039582354156,0.521451585022817,0.459668271328967,7.71695955186415,0.381054879000844,0.0791725107869325,5.7003958309815,0.771732174165573,0.432766777268888,7.71695956735233,0.500394073255158,7.75823849608059e-13,5.70039580464563,0.606601561943419,0.0520263768349953,7.71695952208714,0.436672799832703,2.82940337825721e-11
"59","st2b",4.66314068461311,0.379024987488374,0.963279608105738,7.04060540952213,0.530279798849261,0.962861033615294,4.66314067165505,0.602903970378542,0.00119874690752431,7.04060540857665,0.777859789048678,0.21418616734805,4.66314066746538,0.43946799492048,0.112287559556959,7.04060539946918,0.614522835960844,0.0122589019553532,4.66314068079583,0.530279797195221,0.962861040527822,7.04060541356766,0.374932206204172,0.984589378781029,4.66314068279591,0.777859789707285,0.214186206809139,7.04060540720184,0.498136486485521,4.90027307620267e-09,4.66314067092825,0.614522831450972,0.0122588998831861,7.04060541015382,0.432215910628654,2.35547355842414e-07
"60","sth2_3",4.47142844953671,0.40964899770256,0.670573226903561,6.27337346201337,0.562876477010483,0.286336794787286,4.47142849267657,0.621206200092085,0.00457148612123892,6.27337349154587,0.800025804990829,0.625198787949888,4.47142851714439,0.466954230676369,0.278302948877998,6.27337351957448,0.642778747467704,0.133637996875761,4.47142845726459,0.562876475268761,0.286336781845542,6.27337345866273,0.389707940950792,0.0469534670868148,4.47142843986557,0.800025805733721,0.625198836154648,6.27337345453595,0.509429840158838,2.41884483775934e-05,4.47142849750945,0.642778742781931,0.133637986782926,6.27337349970024,0.446769017904346,0.0010044261648352
"61","sto",4.58595831706635,0.37295415093921,0.872764541090906,6.24998239724678,0.5228248909592,0.158079548195906,4.58595831339932,0.598204725738508,0.00171375379510907,6.24998237119138,0.772605750694876,0.743414723890914,4.58595828417847,0.433486070449885,0.152161831783643,6.24998235807154,0.607792840417869,0.174018400671789,4.58595833536238,0.522824889367036,0.158079535503163,6.24998239844412,0.368967005924583,0.0306427637351381,4.58595833425543,0.772605751511249,0.743414776749211,6.24998240821294,0.492932390354797,1.58923561204283e-05,4.58595830125939,0.60779283598215,0.1740183989903,6.24998235408738,0.426600011659637,0.000699277320258318
"62","Ws",3.96511773344096,0.408534056678728,0.0958121826121396,4.8027613726211,0.579547232137576,0.00697202594944968,3.96511773761734,0.621525625704262,0.0433182172573872,4.80276134778927,0.811717922870939,0.479929881447421,3.96511772059537,0.475872444589273,4.67583183769715e-05,4.80276135424938,0.760811450028548,0.320964298598768,3.96511774854364,0.579547230366769,0.0069720245510716,4.80276135694558,0.413271937530759,5.88098114651103e-08,3.96511774031322,0.811717923546065,0.47992985026001,4.8027613791851,0.526935867696634,0.195119842300776,3.96511772914897,0.760815301147087,0.320960512414719,4.80276134454174,0.656767629821219,0.00276474436120511
"63","yuc2_5_8_9",2.03081084201865,0.360450532335062,4.80060435847918e-13,2.28802238026721,0.521458859565263,3.97625714336769e-05,2.03081082475308,0.590830743690095,0.251195835076804,2.28802236305186,0.771739888963673,0.134943140002173,2.03081080221636,0.423596097808344,5.10764902927896e-06,2.28802233677462,0.606797095151559,0.338850760390134,2.03081084966176,0.521458857958302,3.97625676029634e-05,2.28802238607435,0.380853226254039,0,2.03081084971309,0.771739889665881,0.134943115055266,2.28802238307244,0.502128432710887,0.000267220873944485,2.03081081480009,0.606797090723961,0.338850782477901,2.28802236187869,0.437681212790538,9.82560321993731e-09
